%YAML 1.1
%TAG !u! tag:unity3d.com,2011:
--- !u!1001 &2602031593875610409
PrefabInstance:
  m_ObjectHideFlags: 0
  serializedVersion: 2
  m_Modification:
    m_TransformParent: {fileID: 0}
    m_Modifications:
    - target: {fileID: -9116753411581622020, guid: d2b8a51e0ef1745439b0d3d5f1aa3f91, type: 3}
      propertyPath: m_StaticEditorFlags
      value: 2147483647
      objectReference: {fileID: 0}
    - target: {fileID: -8933866337393888746, guid: d2b8a51e0ef1745439b0d3d5f1aa3f91, type: 3}
      propertyPath: m_StaticEditorFlags
      value: 2147483647
      objectReference: {fileID: 0}
    - target: {fileID: -8904243221539571168, guid: d2b8a51e0ef1745439b0d3d5f1aa3f91, type: 3}
      propertyPath: m_StaticEditorFlags
      value: 2147483647
      objectReference: {fileID: 0}
    - target: {fileID: -8802593792188062057, guid: d2b8a51e0ef1745439b0d3d5f1aa3f91, type: 3}
      propertyPath: m_StaticEditorFlags
      value: 2147483647
      objectReference: {fileID: 0}
    - target: {fileID: -8679921383154817045, guid: d2b8a51e0ef1745439b0d3d5f1aa3f91, type: 3}
      propertyPath: m_RootOrder
      value: 0
      objectReference: {fileID: 0}
    - target: {fileID: -8679921383154817045, guid: d2b8a51e0ef1745439b0d3d5f1aa3f91, type: 3}
      propertyPath: m_LocalPosition.x
      value: 0
      objectReference: {fileID: 0}
    - target: {fileID: -8679921383154817045, guid: d2b8a51e0ef1745439b0d3d5f1aa3f91, type: 3}
      propertyPath: m_LocalPosition.y
      value: 0
      objectReference: {fileID: 0}
    - target: {fileID: -8679921383154817045, guid: d2b8a51e0ef1745439b0d3d5f1aa3f91, type: 3}
      propertyPath: m_LocalPosition.z
      value: 0
      objectReference: {fileID: 0}
    - target: {fileID: -8679921383154817045, guid: d2b8a51e0ef1745439b0d3d5f1aa3f91, type: 3}
      propertyPath: m_LocalRotation.w
      value: 1
      objectReference: {fileID: 0}
    - target: {fileID: -8679921383154817045, guid: d2b8a51e0ef1745439b0d3d5f1aa3f91, type: 3}
      propertyPath: m_LocalRotation.x
      value: 0
      objectReference: {fileID: 0}
    - target: {fileID: -8679921383154817045, guid: d2b8a51e0ef1745439b0d3d5f1aa3f91, type: 3}
      propertyPath: m_LocalRotation.y
      value: 0
      objectReference: {fileID: 0}
    - target: {fileID: -8679921383154817045, guid: d2b8a51e0ef1745439b0d3d5f1aa3f91, type: 3}
      propertyPath: m_LocalRotation.z
      value: 0
      objectReference: {fileID: 0}
    - target: {fileID: -8679921383154817045, guid: d2b8a51e0ef1745439b0d3d5f1aa3f91, type: 3}
      propertyPath: m_LocalEulerAnglesHint.x
      value: 0
      objectReference: {fileID: 0}
    - target: {fileID: -8679921383154817045, guid: d2b8a51e0ef1745439b0d3d5f1aa3f91, type: 3}
      propertyPath: m_LocalEulerAnglesHint.y
      value: 0
      objectReference: {fileID: 0}
    - target: {fileID: -8679921383154817045, guid: d2b8a51e0ef1745439b0d3d5f1aa3f91, type: 3}
      propertyPath: m_LocalEulerAnglesHint.z
      value: 0
      objectReference: {fileID: 0}
    - target: {fileID: -8670584167370916849, guid: d2b8a51e0ef1745439b0d3d5f1aa3f91, type: 3}
      propertyPath: m_StaticEditorFlags
      value: 2147483647
      objectReference: {fileID: 0}
    - target: {fileID: -8186200501581165060, guid: d2b8a51e0ef1745439b0d3d5f1aa3f91, type: 3}
      propertyPath: m_StaticEditorFlags
      value: 2147483647
      objectReference: {fileID: 0}
    - target: {fileID: -7824779313281485147, guid: d2b8a51e0ef1745439b0d3d5f1aa3f91, type: 3}
      propertyPath: m_StaticEditorFlags
      value: 2147483647
      objectReference: {fileID: 0}
    - target: {fileID: -7527139295506899852, guid: d2b8a51e0ef1745439b0d3d5f1aa3f91, type: 3}
      propertyPath: m_StaticEditorFlags
      value: 2147483647
      objectReference: {fileID: 0}
    - target: {fileID: -7430132117109149999, guid: d2b8a51e0ef1745439b0d3d5f1aa3f91, type: 3}
      propertyPath: m_StaticEditorFlags
      value: 2147483647
      objectReference: {fileID: 0}
    - target: {fileID: -7330958631415041092, guid: d2b8a51e0ef1745439b0d3d5f1aa3f91, type: 3}
      propertyPath: m_StaticEditorFlags
      value: 2147483647
      objectReference: {fileID: 0}
    - target: {fileID: -7234275662752200527, guid: d2b8a51e0ef1745439b0d3d5f1aa3f91, type: 3}
      propertyPath: m_StaticEditorFlags
      value: 2147483647
      objectReference: {fileID: 0}
    - target: {fileID: -7230500040373255379, guid: d2b8a51e0ef1745439b0d3d5f1aa3f91, type: 3}
      propertyPath: m_StaticEditorFlags
      value: 2147483647
      objectReference: {fileID: 0}
    - target: {fileID: -7219536149155650644, guid: d2b8a51e0ef1745439b0d3d5f1aa3f91, type: 3}
      propertyPath: m_StaticEditorFlags
      value: 2147483647
      objectReference: {fileID: 0}
    - target: {fileID: -7049950955533260436, guid: d2b8a51e0ef1745439b0d3d5f1aa3f91, type: 3}
      propertyPath: m_StaticEditorFlags
      value: 2147483647
      objectReference: {fileID: 0}
    - target: {fileID: -7005574757350683857, guid: d2b8a51e0ef1745439b0d3d5f1aa3f91, type: 3}
      propertyPath: m_StaticEditorFlags
      value: 2147483647
      objectReference: {fileID: 0}
    - target: {fileID: -6727731674308880562, guid: d2b8a51e0ef1745439b0d3d5f1aa3f91, type: 3}
      propertyPath: m_StaticEditorFlags
      value: 2147483647
      objectReference: {fileID: 0}
    - target: {fileID: -6687539969058078910, guid: d2b8a51e0ef1745439b0d3d5f1aa3f91, type: 3}
      propertyPath: m_StaticEditorFlags
      value: 2147483647
      objectReference: {fileID: 0}
    - target: {fileID: -6558005364934871653, guid: d2b8a51e0ef1745439b0d3d5f1aa3f91, type: 3}
      propertyPath: m_StaticEditorFlags
      value: 2147483647
      objectReference: {fileID: 0}
    - target: {fileID: -6205756066913382404, guid: d2b8a51e0ef1745439b0d3d5f1aa3f91, type: 3}
      propertyPath: m_StaticEditorFlags
      value: 2147483647
      objectReference: {fileID: 0}
    - target: {fileID: -6157241782040641308, guid: d2b8a51e0ef1745439b0d3d5f1aa3f91, type: 3}
      propertyPath: m_StaticEditorFlags
      value: 2147483647
      objectReference: {fileID: 0}
    - target: {fileID: -6087003071345821750, guid: d2b8a51e0ef1745439b0d3d5f1aa3f91, type: 3}
      propertyPath: m_StaticEditorFlags
      value: 2147483647
      objectReference: {fileID: 0}
    - target: {fileID: -5925438889830842682, guid: d2b8a51e0ef1745439b0d3d5f1aa3f91, type: 3}
      propertyPath: m_StaticEditorFlags
      value: 2147483647
      objectReference: {fileID: 0}
    - target: {fileID: -5682148901770564298, guid: d2b8a51e0ef1745439b0d3d5f1aa3f91, type: 3}
      propertyPath: m_StaticEditorFlags
      value: 2147483647
      objectReference: {fileID: 0}
    - target: {fileID: -5265444045643630241, guid: d2b8a51e0ef1745439b0d3d5f1aa3f91, type: 3}
      propertyPath: m_StaticEditorFlags
      value: 2147483647
      objectReference: {fileID: 0}
    - target: {fileID: -4902527028543760540, guid: d2b8a51e0ef1745439b0d3d5f1aa3f91, type: 3}
      propertyPath: m_StaticEditorFlags
      value: 2147483647
      objectReference: {fileID: 0}
    - target: {fileID: -4867228968438655254, guid: d2b8a51e0ef1745439b0d3d5f1aa3f91, type: 3}
      propertyPath: m_StaticEditorFlags
      value: 2147483647
      objectReference: {fileID: 0}
    - target: {fileID: -4395782582356524056, guid: d2b8a51e0ef1745439b0d3d5f1aa3f91, type: 3}
      propertyPath: m_StaticEditorFlags
      value: 2147483647
      objectReference: {fileID: 0}
    - target: {fileID: -4236322280331927068, guid: d2b8a51e0ef1745439b0d3d5f1aa3f91, type: 3}
      propertyPath: m_StaticEditorFlags
      value: 2147483647
      objectReference: {fileID: 0}
    - target: {fileID: -4013204543326565499, guid: d2b8a51e0ef1745439b0d3d5f1aa3f91, type: 3}
      propertyPath: m_StaticEditorFlags
      value: 2147483647
      objectReference: {fileID: 0}
    - target: {fileID: -3977994789946708033, guid: d2b8a51e0ef1745439b0d3d5f1aa3f91, type: 3}
      propertyPath: m_StaticEditorFlags
      value: 2147483647
      objectReference: {fileID: 0}
    - target: {fileID: -3957761040644943700, guid: d2b8a51e0ef1745439b0d3d5f1aa3f91, type: 3}
      propertyPath: m_StaticEditorFlags
      value: 2147483647
      objectReference: {fileID: 0}
    - target: {fileID: -3793818985359585502, guid: d2b8a51e0ef1745439b0d3d5f1aa3f91, type: 3}
      propertyPath: m_StaticEditorFlags
      value: 2147483647
      objectReference: {fileID: 0}
    - target: {fileID: -3582647949657716744, guid: d2b8a51e0ef1745439b0d3d5f1aa3f91, type: 3}
      propertyPath: m_StaticEditorFlags
      value: 2147483647
      objectReference: {fileID: 0}
    - target: {fileID: -2960947157762986119, guid: d2b8a51e0ef1745439b0d3d5f1aa3f91, type: 3}
      propertyPath: m_StaticEditorFlags
      value: 2147483647
      objectReference: {fileID: 0}
    - target: {fileID: -2751126590189869939, guid: d2b8a51e0ef1745439b0d3d5f1aa3f91, type: 3}
      propertyPath: m_StaticEditorFlags
      value: 2147483647
      objectReference: {fileID: 0}
    - target: {fileID: -2348733581827842058, guid: d2b8a51e0ef1745439b0d3d5f1aa3f91, type: 3}
      propertyPath: m_StaticEditorFlags
      value: 2147483647
      objectReference: {fileID: 0}
    - target: {fileID: -1931103391891261215, guid: d2b8a51e0ef1745439b0d3d5f1aa3f91, type: 3}
      propertyPath: m_StaticEditorFlags
      value: 2147483647
      objectReference: {fileID: 0}
    - target: {fileID: -1884637143437940808, guid: d2b8a51e0ef1745439b0d3d5f1aa3f91, type: 3}
      propertyPath: m_StaticEditorFlags
      value: 2147483647
      objectReference: {fileID: 0}
    - target: {fileID: -1752944758209352213, guid: d2b8a51e0ef1745439b0d3d5f1aa3f91, type: 3}
      propertyPath: m_StaticEditorFlags
      value: 2147483647
      objectReference: {fileID: 0}
    - target: {fileID: -1503127368875645755, guid: d2b8a51e0ef1745439b0d3d5f1aa3f91, type: 3}
      propertyPath: m_StaticEditorFlags
      value: 2147483647
      objectReference: {fileID: 0}
    - target: {fileID: -1102150249090340979, guid: d2b8a51e0ef1745439b0d3d5f1aa3f91, type: 3}
      propertyPath: m_StaticEditorFlags
      value: 2147483647
      objectReference: {fileID: 0}
    - target: {fileID: -998420916064798848, guid: d2b8a51e0ef1745439b0d3d5f1aa3f91, type: 3}
      propertyPath: m_StaticEditorFlags
      value: 2147483647
      objectReference: {fileID: 0}
    - target: {fileID: -951640171298874542, guid: d2b8a51e0ef1745439b0d3d5f1aa3f91, type: 3}
      propertyPath: m_StaticEditorFlags
      value: 2147483647
      objectReference: {fileID: 0}
    - target: {fileID: -853811019608628516, guid: d2b8a51e0ef1745439b0d3d5f1aa3f91, type: 3}
      propertyPath: m_StaticEditorFlags
      value: 2147483647
      objectReference: {fileID: 0}
    - target: {fileID: -842064033122027344, guid: d2b8a51e0ef1745439b0d3d5f1aa3f91, type: 3}
      propertyPath: m_StaticEditorFlags
      value: 2147483647
      objectReference: {fileID: 0}
    - target: {fileID: -529011921689354405, guid: d2b8a51e0ef1745439b0d3d5f1aa3f91, type: 3}
      propertyPath: m_StaticEditorFlags
      value: 2147483647
      objectReference: {fileID: 0}
    - target: {fileID: -395508942651845387, guid: d2b8a51e0ef1745439b0d3d5f1aa3f91, type: 3}
      propertyPath: m_StaticEditorFlags
      value: 2147483647
      objectReference: {fileID: 0}
    - target: {fileID: -280920511517420752, guid: d2b8a51e0ef1745439b0d3d5f1aa3f91, type: 3}
      propertyPath: m_StaticEditorFlags
      value: 2147483647
      objectReference: {fileID: 0}
    - target: {fileID: -240688299825811971, guid: d2b8a51e0ef1745439b0d3d5f1aa3f91, type: 3}
      propertyPath: m_StaticEditorFlags
      value: 2147483647
      objectReference: {fileID: 0}
    - target: {fileID: 26526932106424159, guid: d2b8a51e0ef1745439b0d3d5f1aa3f91, type: 3}
      propertyPath: m_StaticEditorFlags
      value: 2147483647
      objectReference: {fileID: 0}
    - target: {fileID: 128950607338926813, guid: d2b8a51e0ef1745439b0d3d5f1aa3f91, type: 3}
      propertyPath: m_StaticEditorFlags
      value: 2147483647
      objectReference: {fileID: 0}
    - target: {fileID: 184365259612328161, guid: d2b8a51e0ef1745439b0d3d5f1aa3f91, type: 3}
      propertyPath: m_StaticEditorFlags
      value: 2147483647
      objectReference: {fileID: 0}
    - target: {fileID: 459193759515433023, guid: d2b8a51e0ef1745439b0d3d5f1aa3f91, type: 3}
      propertyPath: m_StaticEditorFlags
      value: 2147483647
      objectReference: {fileID: 0}
    - target: {fileID: 609295945795254995, guid: d2b8a51e0ef1745439b0d3d5f1aa3f91, type: 3}
      propertyPath: m_StaticEditorFlags
      value: 2147483647
      objectReference: {fileID: 0}
    - target: {fileID: 739855887666242933, guid: d2b8a51e0ef1745439b0d3d5f1aa3f91, type: 3}
      propertyPath: m_StaticEditorFlags
      value: 2147483647
      objectReference: {fileID: 0}
    - target: {fileID: 797736788252187535, guid: d2b8a51e0ef1745439b0d3d5f1aa3f91, type: 3}
      propertyPath: m_StaticEditorFlags
      value: 2147483647
      objectReference: {fileID: 0}
    - target: {fileID: 919132149155446097, guid: d2b8a51e0ef1745439b0d3d5f1aa3f91, type: 3}
      propertyPath: m_Name
      value: Tank3
      objectReference: {fileID: 0}
    - target: {fileID: 919132149155446097, guid: d2b8a51e0ef1745439b0d3d5f1aa3f91, type: 3}
      propertyPath: m_StaticEditorFlags
      value: 2147483647
      objectReference: {fileID: 0}
    - target: {fileID: 1029832293051177689, guid: d2b8a51e0ef1745439b0d3d5f1aa3f91, type: 3}
      propertyPath: m_StaticEditorFlags
      value: 2147483647
      objectReference: {fileID: 0}
    - target: {fileID: 1060457277670769577, guid: d2b8a51e0ef1745439b0d3d5f1aa3f91, type: 3}
      propertyPath: m_StaticEditorFlags
      value: 2147483647
      objectReference: {fileID: 0}
    - target: {fileID: 1067394361255731264, guid: d2b8a51e0ef1745439b0d3d5f1aa3f91, type: 3}
      propertyPath: m_StaticEditorFlags
      value: 2147483647
      objectReference: {fileID: 0}
    - target: {fileID: 1104239165132395348, guid: d2b8a51e0ef1745439b0d3d5f1aa3f91, type: 3}
      propertyPath: m_StaticEditorFlags
      value: 2147483647
      objectReference: {fileID: 0}
    - target: {fileID: 1254810273672831178, guid: d2b8a51e0ef1745439b0d3d5f1aa3f91, type: 3}
      propertyPath: m_StaticEditorFlags
      value: 2147483647
      objectReference: {fileID: 0}
    - target: {fileID: 1525468717002820085, guid: d2b8a51e0ef1745439b0d3d5f1aa3f91, type: 3}
      propertyPath: m_StaticEditorFlags
      value: 2147483647
      objectReference: {fileID: 0}
    - target: {fileID: 1802825933371864178, guid: d2b8a51e0ef1745439b0d3d5f1aa3f91, type: 3}
      propertyPath: m_StaticEditorFlags
      value: 2147483647
      objectReference: {fileID: 0}
    - target: {fileID: 2223037151000178296, guid: d2b8a51e0ef1745439b0d3d5f1aa3f91, type: 3}
      propertyPath: m_StaticEditorFlags
      value: 2147483647
      objectReference: {fileID: 0}
    - target: {fileID: 2378869493304430770, guid: d2b8a51e0ef1745439b0d3d5f1aa3f91, type: 3}
      propertyPath: m_StaticEditorFlags
      value: 2147483647
      objectReference: {fileID: 0}
    - target: {fileID: 2488321772989897837, guid: d2b8a51e0ef1745439b0d3d5f1aa3f91, type: 3}
      propertyPath: m_StaticEditorFlags
      value: 2147483647
      objectReference: {fileID: 0}
    - target: {fileID: 2863658600534201274, guid: d2b8a51e0ef1745439b0d3d5f1aa3f91, type: 3}
      propertyPath: m_StaticEditorFlags
      value: 2147483647
      objectReference: {fileID: 0}
    - target: {fileID: 3189707753965821526, guid: d2b8a51e0ef1745439b0d3d5f1aa3f91, type: 3}
      propertyPath: m_StaticEditorFlags
      value: 2147483647
      objectReference: {fileID: 0}
    - target: {fileID: 3263084395096273473, guid: d2b8a51e0ef1745439b0d3d5f1aa3f91, type: 3}
      propertyPath: m_StaticEditorFlags
      value: 2147483647
      objectReference: {fileID: 0}
    - target: {fileID: 3315651665009020603, guid: d2b8a51e0ef1745439b0d3d5f1aa3f91, type: 3}
      propertyPath: m_StaticEditorFlags
      value: 2147483647
      objectReference: {fileID: 0}
    - target: {fileID: 3346992135021314298, guid: d2b8a51e0ef1745439b0d3d5f1aa3f91, type: 3}
      propertyPath: m_StaticEditorFlags
      value: 2147483647
      objectReference: {fileID: 0}
    - target: {fileID: 3404179119339766507, guid: d2b8a51e0ef1745439b0d3d5f1aa3f91, type: 3}
      propertyPath: m_StaticEditorFlags
      value: 2147483647
      objectReference: {fileID: 0}
    - target: {fileID: 4296388271547697741, guid: d2b8a51e0ef1745439b0d3d5f1aa3f91, type: 3}
      propertyPath: m_StaticEditorFlags
      value: 2147483647
      objectReference: {fileID: 0}
    - target: {fileID: 4496663641182795895, guid: d2b8a51e0ef1745439b0d3d5f1aa3f91, type: 3}
      propertyPath: m_StaticEditorFlags
      value: 2147483647
      objectReference: {fileID: 0}
    - target: {fileID: 4513474128028576291, guid: d2b8a51e0ef1745439b0d3d5f1aa3f91, type: 3}
      propertyPath: m_StaticEditorFlags
      value: 2147483647
      objectReference: {fileID: 0}
    - target: {fileID: 4551515009801307348, guid: d2b8a51e0ef1745439b0d3d5f1aa3f91, type: 3}
      propertyPath: m_StaticEditorFlags
      value: 2147483647
      objectReference: {fileID: 0}
    - target: {fileID: 5094313806549385769, guid: d2b8a51e0ef1745439b0d3d5f1aa3f91, type: 3}
      propertyPath: m_StaticEditorFlags
      value: 2147483647
      objectReference: {fileID: 0}
    - target: {fileID: 5103293177881323060, guid: d2b8a51e0ef1745439b0d3d5f1aa3f91, type: 3}
      propertyPath: m_StaticEditorFlags
      value: 2147483647
      objectReference: {fileID: 0}
    - target: {fileID: 5206331300896046897, guid: d2b8a51e0ef1745439b0d3d5f1aa3f91, type: 3}
      propertyPath: m_StaticEditorFlags
      value: 2147483647
      objectReference: {fileID: 0}
    - target: {fileID: 5338829463945449602, guid: d2b8a51e0ef1745439b0d3d5f1aa3f91, type: 3}
      propertyPath: m_StaticEditorFlags
      value: 2147483647
      objectReference: {fileID: 0}
    - target: {fileID: 5619036311101036164, guid: d2b8a51e0ef1745439b0d3d5f1aa3f91, type: 3}
      propertyPath: m_StaticEditorFlags
      value: 2147483647
      objectReference: {fileID: 0}
    - target: {fileID: 6110420260984948059, guid: d2b8a51e0ef1745439b0d3d5f1aa3f91, type: 3}
      propertyPath: m_StaticEditorFlags
      value: 2147483647
      objectReference: {fileID: 0}
    - target: {fileID: 6234448988135492141, guid: d2b8a51e0ef1745439b0d3d5f1aa3f91, type: 3}
      propertyPath: m_StaticEditorFlags
      value: 2147483647
      objectReference: {fileID: 0}
    - target: {fileID: 6293880399442837786, guid: d2b8a51e0ef1745439b0d3d5f1aa3f91, type: 3}
      propertyPath: m_StaticEditorFlags
      value: 2147483647
      objectReference: {fileID: 0}
    - target: {fileID: 6544835455503419582, guid: d2b8a51e0ef1745439b0d3d5f1aa3f91, type: 3}
      propertyPath: m_StaticEditorFlags
      value: 2147483647
      objectReference: {fileID: 0}
    - target: {fileID: 6797013247229174212, guid: d2b8a51e0ef1745439b0d3d5f1aa3f91, type: 3}
      propertyPath: m_StaticEditorFlags
      value: 2147483647
      objectReference: {fileID: 0}
    - target: {fileID: 6809301242062026480, guid: d2b8a51e0ef1745439b0d3d5f1aa3f91, type: 3}
      propertyPath: m_StaticEditorFlags
      value: 2147483647
      objectReference: {fileID: 0}
    - target: {fileID: 7077979168691037361, guid: d2b8a51e0ef1745439b0d3d5f1aa3f91, type: 3}
      propertyPath: m_StaticEditorFlags
      value: 2147483647
      objectReference: {fileID: 0}
    - target: {fileID: 7211506563226376838, guid: d2b8a51e0ef1745439b0d3d5f1aa3f91, type: 3}
      propertyPath: m_StaticEditorFlags
      value: 2147483647
      objectReference: {fileID: 0}
    - target: {fileID: 7919657232682756302, guid: d2b8a51e0ef1745439b0d3d5f1aa3f91, type: 3}
      propertyPath: m_StaticEditorFlags
      value: 2147483647
      objectReference: {fileID: 0}
    - target: {fileID: 8035899374514851301, guid: d2b8a51e0ef1745439b0d3d5f1aa3f91, type: 3}
      propertyPath: m_StaticEditorFlags
      value: 2147483647
      objectReference: {fileID: 0}
    - target: {fileID: 8146916057266096228, guid: d2b8a51e0ef1745439b0d3d5f1aa3f91, type: 3}
      propertyPath: m_StaticEditorFlags
      value: 2147483647
      objectReference: {fileID: 0}
    - target: {fileID: 8486628899089990428, guid: d2b8a51e0ef1745439b0d3d5f1aa3f91, type: 3}
      propertyPath: m_StaticEditorFlags
      value: 2147483647
      objectReference: {fileID: 0}
    - target: {fileID: 8913950457993375888, guid: d2b8a51e0ef1745439b0d3d5f1aa3f91, type: 3}
      propertyPath: m_StaticEditorFlags
      value: 2147483647
      objectReference: {fileID: 0}
    - target: {fileID: 9128051065132369561, guid: d2b8a51e0ef1745439b0d3d5f1aa3f91, type: 3}
      propertyPath: m_StaticEditorFlags
      value: 2147483647
      objectReference: {fileID: 0}
    m_RemovedComponents: []
  m_SourcePrefab: {fileID: 100100000, guid: d2b8a51e0ef1745439b0d3d5f1aa3f91, type: 3}
