%YAML 1.1
%TAG !u! tag:unity3d.com,2011:
--- !u!114 &11400000
MonoBehaviour:
  m_ObjectHideFlags: 0
  m_CorrespondingSourceObject: {fileID: 0}
  m_PrefabInstance: {fileID: 0}
  m_PrefabAsset: {fileID: 0}
  m_GameObject: {fileID: 0}
  m_Enabled: 1
  m_EditorHideFlags: 0
  m_Script: {fileID: 11500000, guid: 2557cbf0e69fb894c8a49b8651e8b90c, type: 3}
  m_Name: Coffin
  m_EditorClassIdentifier: 
  TransparentWall: 1
  WallTexture: {fileID: 0}
  SkyBox: {fileID: 2100000, guid: d11d338e6a849d84f85a289f91b3fa00, type: 2}
